\relax 
\providecommand\hyper@newdestlabel[2]{}
\providecommand\babel@aux[2]{}
\@nameuse{bbl@beforestart}
\providecommand\HyperFirstAtBeginDocument{\AtBeginDocument}
\HyperFirstAtBeginDocument{\ifx\hyper@anchor\@undefined
\global\let\oldcontentsline\contentsline
\gdef\contentsline#1#2#3#4{\oldcontentsline{#1}{#2}{#3}}
\global\let\oldnewlabel\newlabel
\gdef\newlabel#1#2{\newlabelxx{#1}#2}
\gdef\newlabelxx#1#2#3#4#5#6{\oldnewlabel{#1}{{#2}{#3}}}
\AtEndDocument{\ifx\hyper@anchor\@undefined
\let\contentsline\oldcontentsline
\let\newlabel\oldnewlabel
\fi}
\fi}
\global\let\hyper@last\relax 
\gdef\HyperFirstAtBeginDocument#1{#1}
\providecommand\HyField@AuxAddToFields[1]{}
\providecommand\HyField@AuxAddToCoFields[2]{}
\babel@aux{english}{}
\newlabel{index::doc}{{}{1}{}{section*.2}{}}
\@writefile{toc}{\contentsline {chapter}{\numberline {1}molgemtools reference}{1}{chapter.1}\protected@file@percent }
\@writefile{lof}{\addvspace {10\p@ }}
\@writefile{lot}{\addvspace {10\p@ }}
\newlabel{index:molgemtools-reference}{{1}{1}{molgemtools reference}{chapter.1}{}}
\@writefile{toc}{\contentsline {section}{\numberline {1.1}molgemtools.geom}{1}{section.1.1}\protected@file@percent }
\newlabel{index:module-molgemtools.geom}{{1.1}{1}{molgemtools.geom}{section.1.1}{}}
\newlabel{index:molgemtools-geom}{{1.1}{1}{molgemtools.geom}{section.1.1}{}}
\newlabel{index:molgemtools.geom.open_xyz}{{1.1}{1}{molgemtools.geom}{section*.3}{}}
\newlabel{index:molgemtools.geom.read_xyz}{{1.1}{2}{molgemtools.geom}{section*.4}{}}
\newlabel{index:molgemtools.geom.write_xyz}{{1.1}{3}{molgemtools.geom}{section*.5}{}}
\newlabel{index:molgemtools.geom.write_zmat}{{1.1}{5}{molgemtools.geom}{section*.6}{}}
\newlabel{index:molgemtools.geom.xyz_from_zmat}{{1.1}{8}{molgemtools.geom}{section*.7}{}}
\citation{index:rdc9c4c83eb57-parsons2005}
\newlabel{index:molgemtools.geom.center}{{1.1}{10}{molgemtools.geom}{section*.8}{}}
\newlabel{index:molgemtools.geom.rmsd}{{1.1}{11}{molgemtools.geom}{section*.9}{}}
\newlabel{index:molgemtools.geom.smsvd}{{1.1}{12}{molgemtools.geom}{section*.10}{}}
\citation{index:r349b5ea2d158-kabsch1976}
\citation{index:r349b5ea2d158-umeyama1991}
\citation{index:r349b5ea2d158-lawrence2019}
\citation{index:r349b5ea2d158-sorkine2017}
\citation{index:r349b5ea2d158-sehnal2007}
\citation{index:rdc0649866cb0-slabaugh1999}
\newlabel{index:molgemtools.geom.rmat}{{1.1}{14}{molgemtools.geom}{section*.11}{}}
\newlabel{index:molgemtools.geom.euler}{{1.1}{15}{molgemtools.geom}{section*.12}{}}
\gdef \LT@i {\LT@entry 
    {5}{213.38394pt}\LT@entry 
    {5}{213.38394pt}}
\newlabel{index:molgemtools.geom.Geom}{{1.1}{16}{molgemtools.geom}{section*.13}{}}
\newlabel{index:molgemtools.geom.Geom.adjacency}{{1.1}{17}{molgemtools.geom}{section*.14}{}}
\newlabel{index:molgemtools.geom.Geom.distance}{{1.1}{17}{molgemtools.geom}{section*.15}{}}
\newlabel{index:molgemtools.geom.Geom.angle}{{1.1}{18}{molgemtools.geom}{section*.16}{}}
\citation{index:ra6bb7d977ac0-emery2001}
\citation{index:ra6bb7d977ac0-bayati2015}
\newlabel{index:molgemtools.geom.Geom.dihedral}{{1.1}{19}{molgemtools.geom}{section*.17}{}}
\newlabel{index:molgemtools.geom.Geom.eudistmat}{{1.1}{20}{molgemtools.geom}{section*.18}{}}
\newlabel{index:molgemtools.geom.Geom.conformer}{{1.1}{20}{molgemtools.geom}{section*.19}{}}
\citation{index:r53075b2950a3-cowgill1964}
\newlabel{index:molgemtools.geom.Geom.inertia}{{1.1}{23}{molgemtools.geom}{section*.20}{}}
\citation{index:rc40ae8b9ed1b-heap1963}
\newlabel{index:molgemtools.geom.Geom.permute}{{1.1}{24}{molgemtools.geom}{section*.21}{}}
\newlabel{index:molgemtools.geom.Geom.zmat}{{1.1}{25}{molgemtools.geom}{section*.22}{}}
\gdef \LT@ii {\LT@entry 
    {5}{213.38394pt}\LT@entry 
    {5}{213.38394pt}}
\@writefile{toc}{\contentsline {section}{\numberline {1.2}molgemtools.graph}{27}{section.1.2}\protected@file@percent }
\newlabel{index:module-molgemtools.graph}{{1.2}{27}{molgemtools.graph}{section.1.2}{}}
\newlabel{index:molgemtools-graph}{{1.2}{27}{molgemtools.graph}{section.1.2}{}}
\@writefile{lof}{\contentsline {figure}{\numberline {1}{\ignorespaces A graph representing the alanine molecule.}}{27}{figure.1.1}\protected@file@percent }
\newlabel{index:id19}{{1}{27}{A graph representing the alanine molecule}{figure.1.1}{}}
\newlabel{index:molgemtools.graph.Graph}{{1.2}{27}{molgemtools.graph}{section*.23}{}}
\newlabel{index:molgemtools.graph.Graph.adjmat}{{1.2}{28}{molgemtools.graph}{section*.24}{}}
\citation{index:r4dc12845f132-floyd1962}
\newlabel{index:molgemtools.graph.Graph.distmat}{{1.2}{29}{molgemtools.graph}{section*.25}{}}
\newlabel{index:molgemtools.graph.Graph.vertex}{{1.2}{30}{molgemtools.graph}{section*.26}{}}
\newlabel{index:molgemtools.graph.Graph.distsum}{{1.2}{31}{molgemtools.graph}{section*.27}{}}
\citation{index:r75ce8922b7cb-anderson1985}
\newlabel{index:molgemtools.graph.Graph.laplacian}{{1.2}{32}{molgemtools.graph}{section*.28}{}}
\newlabel{index:molgemtools.graph.Graph.components}{{1.2}{33}{molgemtools.graph}{section*.29}{}}
\citation{index:r5e62588b14f3-mohr2016}
\citation{index:r5e62588b14f3-lide2010}
\citation{index:r5e62588b14f3-newell2018}
\citation{index:r5e62588b14f3-cordero2008}
\@writefile{toc}{\contentsline {section}{\numberline {1.3}molgemtools.constants}{34}{section.1.3}\protected@file@percent }
\newlabel{index:module-molgemtools.constants}{{1.3}{34}{molgemtools.constants}{section.1.3}{}}
\newlabel{index:molgemtools-constants}{{1.3}{34}{molgemtools.constants}{section.1.3}{}}
\newlabel{index:molgemtools.constants.Constants}{{1.3}{34}{molgemtools.constants}{section*.30}{}}
\@writefile{lot}{\contentsline {table}{\numberline {3}{\ignorespaces Fundamental constants and relevant units in physics and chemistry.}}{35}{table.1.3}\protected@file@percent }
\@writefile{lot}{\contentsline {table}{\numberline {4}{\ignorespaces Data related to chemical elements from H to Cd.}}{36}{table.1.4}\protected@file@percent }
\@writefile{lot}{\contentsline {table}{\numberline {5}{\ignorespaces Data related to chemical elements from In to Cm.}}{37}{table.1.5}\protected@file@percent }
\bibcite{index:rdc9c4c83eb57-parsons2005}{Parsons2005}
\bibcite{index:r349b5ea2d158-kabsch1976}{Kabsch1976}
\bibcite{index:r349b5ea2d158-umeyama1991}{Umeyama1991}
\bibcite{index:r349b5ea2d158-lawrence2019}{Lawrence2019}
\bibcite{index:r349b5ea2d158-sorkine2017}{Sorkine2017}
\bibcite{index:r349b5ea2d158-sehnal2007}{Sehnal2007}
\bibcite{index:rdc0649866cb0-slabaugh1999}{Slabaugh1999}
\bibcite{index:ra6bb7d977ac0-emery2001}{Emery2001}
\bibcite{index:ra6bb7d977ac0-bayati2015}{Bayati2015}
\bibcite{index:r53075b2950a3-cowgill1964}{Cowgill1964}
\bibcite{index:rc40ae8b9ed1b-heap1963}{Heap1963}
\bibcite{index:r4dc12845f132-floyd1962}{Floyd1962}
\bibcite{index:r75ce8922b7cb-anderson1985}{Anderson1985}
\bibcite{index:r5e62588b14f3-mohr2016}{Mohr2016}
\bibcite{index:r5e62588b14f3-lide2010}{Lide2010}
\bibcite{index:r5e62588b14f3-newell2018}{Newell2018}
\bibcite{index:r5e62588b14f3-cordero2008}{Cordero2008}
\@writefile{toc}{\contentsline {chapter}{Bibliography}{39}{chapter*.31}\protected@file@percent }
\@writefile{toc}{\contentsline {chapter}{Python Module Index}{41}{section*.32}\protected@file@percent }
\@writefile{toc}{\contentsline {chapter}{Index}{43}{section*.33}\protected@file@percent }
