\babel@toc {english}{}
\contentsline {chapter}{\numberline {1}molgemtools reference}{1}{chapter.1}%
\contentsline {section}{\numberline {1.1}molgemtools.geom}{1}{section.1.1}%
\contentsline {section}{\numberline {1.2}molgemtools.graph}{27}{section.1.2}%
\contentsline {section}{\numberline {1.3}molgemtools.constants}{34}{section.1.3}%
\contentsline {chapter}{Bibliography}{39}{chapter*.31}%
\contentsline {chapter}{Python Module Index}{41}{section*.32}%
\contentsline {chapter}{Index}{43}{section*.33}%
