\BOOKMARK [0][-]{chapter.1}{\376\377\000m\000o\000l\000g\000e\000m\000t\000o\000o\000l\000s\000\040\000r\000e\000f\000e\000r\000e\000n\000c\000e}{}% 1
\BOOKMARK [1][-]{section.1.1}{\376\377\000m\000o\000l\000g\000e\000m\000t\000o\000o\000l\000s\000.\000g\000e\000o\000m}{chapter.1}% 2
\BOOKMARK [1][-]{section.1.2}{\376\377\000m\000o\000l\000g\000e\000m\000t\000o\000o\000l\000s\000.\000g\000r\000a\000p\000h}{chapter.1}% 3
\BOOKMARK [1][-]{section.1.3}{\376\377\000m\000o\000l\000g\000e\000m\000t\000o\000o\000l\000s\000.\000c\000o\000n\000s\000t\000a\000n\000t\000s}{chapter.1}% 4
\BOOKMARK [0][-]{chapter*.31}{\376\377\000B\000i\000b\000l\000i\000o\000g\000r\000a\000p\000h\000y}{}% 5
\BOOKMARK [0][-]{section*.32}{\376\377\000P\000y\000t\000h\000o\000n\000\040\000M\000o\000d\000u\000l\000e\000\040\000I\000n\000d\000e\000x}{}% 6
\BOOKMARK [0][-]{section*.33}{\376\377\000I\000n\000d\000e\000x}{}% 7
